<?xml version="1.0" encoding="UTF-8" standalone="no"?>
<!DOCTYPE svg PUBLIC "-//W3C//DTD SVG 1.1//EN"
"http://www.w3.org/Graphics/SVG/1.1/DTD/svg11.dtd">


<!-- Page 1 -->
<svg x="0" y="0" width="216" height="238" viewBox="0 0 216 238" version="1.1" xmlns="http://www.w3.org/2000/svg" xmlns:xlink="http://www.w3.org/1999/xlink"
style="display: block;margin-left: auto;margin-right: auto;">
<defs>

<style type="text/css"><![CDATA[


]]></style>

</defs>
<path d="M0,0
L0,238
L216,238
L216,0 Z "
fill="#044B9466" fill-opacity="0" stroke="none" />
<path fill="#fff" d="M14.2,213.4V222h-5v-8.6L3.9,196.8H9c.8,2.4,1.7,6.5,2.7,12c1,-5.5,1.9,-9.6,2.6,-12h5.1Z" class="g0_1" />
<path fill="#fff" d="M26.9,217.3h8.3V222H21.9V196.8H35.2v4.6H26.9V207h6.9v4.7H26.9Z" class="g0_1" />
<path fill="#fff" d="M46.8,208.3c.5,0,.9,-.1,1.3,-.4c.3,-.4,.5,-.7,.5,-1.2v-5.3H43.9v6.9ZM43.9,213v9h-5V196.8h11c1,0,1.9,.3,2.6,1c.7,.7,1.1,1.5,1.1,2.4v6.5c0,1.7,-.6,3,-1.9,4c1.3,.9,1.9,2.3,1.9,3.9V222h-5v-7.4c0,-.4,-.2,-.8,-.5,-1.1c-.4,-.4,-.8,-.5,-1.3,-.5Z" class="g0_1" />
<path fill="#fff" d="M63.3,217.3h2.4c1.6,0,2.4,-.5,2.4,-1.6v-2.4c0,-.4,-.2,-.8,-.6,-1.1c-.3,-.3,-.7,-.5,-1.2,-.5h-3Zm0,-15.9V207h2.3c.5,0,1,-.1,1.3,-.4c.4,-.4,.6,-.7,.6,-1.2v-4Zm-4.9,-4.6H68.8c1,0,1.8,.3,2.6,1c.7,.7,1.1,1.5,1.1,2.4v5.2c0,1.5,-.6,2.8,-1.7,3.7c1.5,1,2.3,2.4,2.3,4.2v2.4c0,1.9,-.7,3.4,-2.2,4.6c-1.4,1.1,-3.1,1.7,-5.2,1.7H58.4Z" class="g0_1" />
<path fill="#fff" d="M82.8,212.2h2.4L84,201.5Zm-.9,4.7l-1,5.1H75.8l4.9,-25.2h6.6L92.2,222H87.1l-.9,-5.1Z" class="g0_1" />
<path fill="#fff"  d="M100,195.8l1.8,-4.9h5l-3.3,4.9Zm4.6,5.6H99.9v15.9h4.7v-3.8h5v5c0,1,-.3,1.8,-1.1,2.5c-.7,.6,-1.6,1,-2.6,1H98.6c-1,0,-1.9,-.4,-2.6,-1c-.8,-.7,-1.1,-1.5,-1.1,-2.5V200.2c0,-.9,.3,-1.7,1.1,-2.4c.7,-.7,1.6,-1,2.6,-1h7.3c1,0,1.9,.3,2.6,1c.8,.7,1.1,1.5,1.1,2.4v5.1h-5Z" class="g0_1" />
<path fill="#fff" d="M126.6,211.7V222h-5V196.8h5V207h4.7V196.8h5V222h-5V211.7Z" class="g0_1" />
<path fill="#fff" d="M146.3,217.3h8.3V222H141.3V196.8h13.3v4.6h-8.3V207h6.9v4.7h-6.9Z" class="g0_1" />
<path fill="#fff"  d="M166.2,208.3c.5,0,.9,-.1,1.2,-.4c.4,-.4,.6,-.7,.6,-1.2v-5.3h-4.8v6.9Zm-3,4.7v9h-4.9V196.8h11c1,0,1.9,.3,2.6,1c.7,.7,1.1,1.5,1.1,2.4v6.5c0,1.7,-.7,3,-1.9,4c1.2,.9,1.9,2.3,1.9,3.9V222h-5v-7.4c0,-.4,-.2,-.8,-.6,-1.1c-.3,-.4,-.7,-.5,-1.2,-.5Z" class="g0_1" />
<path fill="#fff"  d="M182.7,217.3h2.4c1.6,0,2.4,-.5,2.4,-1.6v-2.4c0,-.4,-.2,-.8,-.6,-1.1c-.3,-.3,-.7,-.5,-1.2,-.5h-3Zm0,-15.9V207H185c.5,0,1,-.1,1.3,-.4c.4,-.4,.6,-.7,.6,-1.2v-4Zm-5,-4.6h10.4c1.1,0,1.9,.3,2.7,1c.7,.7,1.1,1.5,1.1,2.4v5.2c0,1.5,-.6,2.8,-1.7,3.7c1.5,1,2.3,2.4,2.3,4.2v2.4c0,1.9,-.8,3.4,-2.2,4.6c-1.4,1.1,-3.1,1.7,-5.2,1.7h-7.4Z" class="g0_1" />
<path fill="#fff"  d="M206.3,222h-9.5V196.8h13.3v4.6h-8.3V207h6.9v4.7h-6.9v5.6h8.3V222H210c-.8,.2,-1.4,.5,-1.7,.7c-.3,.3,-.5,.6,-.5,1q0,.1,0,.2c0,.3,.1,.6,.3,.8c.3,.2,.6,.3,1,.3c.3,0,.8,-.2,1.6,-.5l.4,1.9c-.7,.4,-1.4,.7,-2.2,.7h-.2c-.9,0,-1.7,-.3,-2.3,-.9c-.6,-.5,-.9,-1.2,-.9,-2c0,-.1,0,-.2,.1,-.3c0,-.7,.3,-1.4,.7,-1.9Z" class="g0_1" />
<path fill="#fff"  d="M141.1,100.2l-7.9,-5.9L149.8,71.8l7.9,5.8L150,88.2ZM124.3,66.7v0l1.1,-1.4l10,-13.6l7.9,5.8l-.4,.7h-.1l-20.6,28l-7.9,-5.8ZM107.5,49.9L121.6,30.8l8,5.8l-13.3,18ZM97.6,23.8l7.9,5.8L95.3,43.4L86.6,38.7ZM85.3,182.9l6.4,-47.6c.3,-1.6,-.1,-3.3,-1.1,-4.7L56,80L70.9,45l38.2,20.5L104.3,72L91.1,62.3c-2.9,-2.1,-7,-1.9,-9.4,.7c-2.7,3.1,-2.2,7.7,1.1,10.1l18.9,14L120.6,101l18.9,13.9c1.2,.9,2.6,1.4,4.1,1.4c1.1,0,2.2,-.3,3.2,-.9l-.9,7.7l-13.1,14.2c-1.3,1.3,-1.9,3.1,-1.8,5l2.3,40.7h13.6l-2.1,-38.6l12.6,-13.7c1,-1,1.6,-2.4,1.8,-3.8l3.9,-32.4L173.7,80c2.3,-3,1.6,-7.3,-1.4,-9.5L158.9,60.6l.5,-.7c2.2,-3,1.6,-7.3,-1.5,-9.5L144.5,40.5L145.6,39c2.2,-3,1.6,-7.3,-1.5,-9.5l-18.9,-14c-1.4,-1.1,-3.3,-1.5,-5,-1.2c-1.8,.2,-3.4,1.2,-4.5,2.6l-1.1,1.5L101.2,8.5C98.1,6.3,93.9,6.9,91.6,10L75.4,32L70.7,29.5C69,28.6,67,28.4,65.2,29.1c-1.8,.6,-3.2,2,-4,3.7L42,78.1c-.9,2.1,-.7,4.6,.6,6.5l35.3,51.5L71.6,183Z" class="g1_1" />

</svg>
